<svg width="100" height="106" viewBox="0 0 100 106" fill="none" xmlns="http://www.w3.org/2000/svg">
<circle opacity="0.5" cx="56.4" cy="43.6" r="43.6" fill="url(#paint0_linear)"/>
<circle opacity="0.5" cx="32.2" cy="73.8" r="32.2" fill="url(#paint1_linear)"/>
<defs>
<linearGradient id="paint0_linear" x1="56.4001" y1="-80.9714" x2="56.4001" y2="87.2" gradientUnits="userSpaceOnUse">
<stop stop-color="#F55D85"/>
<stop offset="1" stop-color="#F2B3B0"/>
</linearGradient>
<linearGradient id="paint1_linear" x1="32.2" y1="-18.2" x2="32.2" y2="106" gradientUnits="userSpaceOnUse">
<stop stop-color="#F55D85"/>
<stop offset="1" stop-color="#F2B3B0"/>
</linearGradient>
</defs>
</svg>
