<svg width="180" height="191" viewBox="0 0 180 191" fill="none" xmlns="http://www.w3.org/2000/svg">
<g opacity="0.5">
<mask id="path-1-inside-1" fill="white">
<path d="M14.4 82.8C14.4 128.529 51.4708 165.6 97.2 165.6C142.929 165.6 180 128.529 180 82.8C180 37.0708 142.929 0 97.2 0C51.4708 0 14.4 37.0708 14.4 82.8ZM122.04 82.8C122.04 96.5188 110.919 107.64 97.2 107.64C83.4812 107.64 72.36 96.5188 72.36 82.8C72.36 69.0812 83.4812 57.96 97.2 57.96C110.919 57.96 122.04 69.0812 122.04 82.8Z"/>
</mask>
<path d="M14.4 82.8C14.4 128.529 51.4708 165.6 97.2 165.6C142.929 165.6 180 128.529 180 82.8C180 37.0708 142.929 0 97.2 0C51.4708 0 14.4 37.0708 14.4 82.8ZM122.04 82.8C122.04 96.5188 110.919 107.64 97.2 107.64C83.4812 107.64 72.36 96.5188 72.36 82.8C72.36 69.0812 83.4812 57.96 97.2 57.96C110.919 57.96 122.04 69.0812 122.04 82.8Z" stroke="url(#paint0_linear)" stroke-width="101.244" mask="url(#path-1-inside-1)"/>
</g>
<circle opacity="0.5" cx="50.4" cy="140.4" r="50.4" fill="url(#paint1_linear)"/>
<defs>
<linearGradient id="paint0_linear" x1="62.2053" y1="-39.0566" x2="194.373" y2="106.234" gradientUnits="userSpaceOnUse">
<stop stop-color="#E55D85"/>
<stop offset="1" stop-color="#F2B3B0"/>
</linearGradient>
<linearGradient id="paint1_linear" x1="50.4" y1="-3.60001" x2="50.4" y2="190.8" gradientUnits="userSpaceOnUse">
<stop stop-color="#F55D85"/>
<stop offset="1" stop-color="#F2B3B0"/>
</linearGradient>
</defs>
</svg>
