<svg width="174" height="33" viewBox="0 0 174 33" fill="none" xmlns="http://www.w3.org/2000/svg">
<circle cx="6.6" cy="6.6" r="6.6" fill="#9A8AC2"/>
<circle cx="26.3998" cy="26.4" r="6.6" fill="#9A8AC2"/>
<circle cx="46.1996" cy="6.6" r="6.6" fill="#9A8AC2"/>
<circle cx="85.7997" cy="6.6" r="6.6" fill="#9A8AC2"/>
<circle cx="65.9997" cy="26.4" r="6.6" fill="#9A8AC2"/>
<circle cx="105.351" cy="26.4" r="6.6" fill="#9A8AC2"/>
<circle cx="125.151" cy="6.6" r="6.6" fill="#9A8AC2"/>
<circle cx="164.751" cy="6.6" r="6.6" fill="#9A8AC2"/>
<circle cx="144.951" cy="26.4" r="6.6" fill="#9A8AC2"/>
</svg>
