<svg width="55" height="54" viewBox="0 0 55 54" fill="none" xmlns="http://www.w3.org/2000/svg">
<path fill-rule="evenodd" clip-rule="evenodd" d="M27.5227 0C12.3032 0 0 12.3243 0 27.5698C0 39.7571 7.88316 50.073 18.8193 53.7246C20.1864 53.9985 20.6876 53.1312 20.6876 52.4009C20.6876 51.7619 20.642 49.5709 20.642 47.2886C12.9867 48.9318 11.3919 44.0021 11.3919 44.0021C10.1615 40.807 8.33884 39.9854 8.33884 39.9854C5.83263 38.2965 8.52111 38.2965 8.52111 38.2965C11.3007 38.4791 12.7589 41.1265 12.7589 41.1265C15.2195 45.3259 19.1839 44.1391 20.7787 43.4088C21.0066 41.6286 21.7357 40.3962 22.5103 39.7115C16.4043 39.0724 9.97926 36.6989 9.97926 26.1092C9.97926 23.0966 11.0729 20.6317 12.8044 18.7146C12.531 18.0299 11.5741 15.1999 13.0778 11.4113C13.0778 11.4113 15.4018 10.681 20.642 14.2414C22.8293 13.648 25.1988 13.3285 27.5227 13.3285C29.8467 13.3285 32.2162 13.648 34.4034 14.2414C39.6437 10.681 41.9676 11.4113 41.9676 11.4113C43.4713 15.1999 42.5144 18.0299 42.241 18.7146C44.0181 20.6317 45.0662 23.0966 45.0662 26.1092C45.0662 36.6989 38.6412 39.0268 32.4896 39.7115C33.4921 40.5787 34.3578 42.222 34.3578 44.8238C34.3578 48.521 34.3123 51.488 34.3123 52.4009C34.3123 53.1312 34.8135 53.9985 36.1805 53.7246C47.1167 50.073 54.9999 39.7571 54.9999 27.5698C55.0454 12.3243 42.6967 0 27.5227 0Z" fill="#BE1668"/>
<path d="M10.4349 39.5745C10.3894 39.7114 10.1615 39.7571 9.97926 39.6658C9.79699 39.5745 9.66029 39.3919 9.75142 39.255C9.79699 39.1181 10.0248 39.0724 10.2071 39.1637C10.3894 39.255 10.4805 39.4376 10.4349 39.5745Z" fill="#BE1668"/>
<path d="M11.5286 40.807C11.3919 40.9439 11.1185 40.8526 10.9818 40.6701C10.7995 40.4875 10.7539 40.2136 10.8906 40.0767C11.0273 39.9397 11.2552 40.031 11.4375 40.2136C11.6197 40.4418 11.6653 40.7157 11.5286 40.807Z" fill="#BE1668"/>
<path d="M12.6221 42.4046C12.4399 42.5415 12.1665 42.4046 12.0298 42.1763C11.8475 41.9481 11.8475 41.6286 12.0298 41.5373C12.212 41.4004 12.4854 41.5373 12.6221 41.7655C12.8044 41.9938 12.8044 42.2676 12.6221 42.4046Z" fill="#BE1668"/>
<path d="M14.1258 43.9566C13.9891 44.1392 13.6702 44.0936 13.3968 43.8653C13.1689 43.6371 13.0778 43.3176 13.26 43.1807C13.3968 42.9981 13.7157 43.0437 13.9891 43.2719C14.217 43.4545 14.2625 43.774 14.1258 43.9566Z" fill="#BE1668"/>
<path d="M16.1764 44.8237C16.1308 45.0519 15.8118 45.1432 15.4929 45.0519C15.1739 44.9606 14.9916 44.6868 15.0372 44.5042C15.0828 44.2759 15.4017 44.1847 15.7207 44.2759C16.0397 44.3672 16.222 44.5955 16.1764 44.8237Z" fill="#BE1668"/>
<path d="M18.4092 45.0063C18.4092 45.2345 18.1358 45.4171 17.8169 45.4171C17.4979 45.4171 17.2245 45.2345 17.2245 45.0063C17.2245 44.778 17.4979 44.5955 17.8169 44.5955C18.1358 44.5955 18.4092 44.778 18.4092 45.0063Z" fill="#BE1668"/>
<path d="M20.5053 44.6413C20.5509 44.8695 20.3231 45.0977 20.0041 45.1434C19.6851 45.189 19.4117 45.0521 19.3662 44.8238C19.3206 44.5956 19.5484 44.3674 19.8674 44.3217C20.1864 44.2761 20.4598 44.413 20.5053 44.6413Z" fill="#BE1668"/>
</svg>
