<svg width="55" height="55" viewBox="0 0 55 55" fill="none" xmlns="http://www.w3.org/2000/svg">
<path d="M27.4999 4.95506C34.8428 4.95506 35.7125 4.983 38.6123 5.1153C41.2935 5.23767 42.7496 5.68567 43.7187 6.06217C45.0022 6.56104 45.9184 7.15706 46.8807 8.11932C47.8429 9.08158 48.439 9.99777 48.9377 11.2813C49.3143 12.2504 49.7623 13.7065 49.8847 16.3876C50.017 19.2875 50.0449 20.1572 50.0449 27.5001C50.0449 34.8429 50.017 35.7126 49.8847 38.6124C49.7623 41.2936 49.3143 42.7497 48.9377 43.7188C48.439 45.0023 47.8429 45.9185 46.8807 46.8808C45.9184 47.843 45.0022 48.4391 43.7187 48.9378C42.7496 49.3144 41.2935 49.7624 38.6123 49.8848C35.7129 50.0171 34.8432 50.0451 27.4999 50.0451C20.1567 50.0451 19.287 50.0171 16.3876 49.8848C13.7064 49.7624 12.2503 49.3144 11.2813 48.9378C9.99766 48.4391 9.08147 47.843 8.11921 46.8808C7.15695 45.9185 6.56093 45.0023 6.06217 43.7188C5.68556 42.7497 5.23757 41.2936 5.1152 38.6125C4.98289 35.7126 4.95495 34.8429 4.95495 27.5001C4.95495 20.1572 4.98289 19.2875 5.1152 16.3877C5.23757 13.7065 5.68556 12.2504 6.06217 11.2813C6.56093 9.99777 7.15695 9.08158 8.11921 8.11932C9.08147 7.15706 9.99766 6.56104 11.2813 6.06217C12.2503 5.68567 13.7064 5.23767 16.3875 5.1153C19.2874 4.983 20.1571 4.95506 27.4999 4.95506ZM27.4999 0C20.0313 0 19.095 0.0316568 16.1618 0.165489C13.2346 0.299102 11.2357 0.763912 9.48635 1.44377C7.67798 2.14655 6.14437 3.08687 4.61556 4.61567C3.08676 6.14448 2.14644 7.67809 1.44366 9.48646C0.763802 11.2358 0.298993 13.2347 0.16538 16.1619C0.0315477 19.095 0 20.0314 0 27.5001C0 34.9687 0.0315477 35.9052 0.16538 38.8382C0.298993 41.7654 0.763802 43.7643 1.44366 45.5137C2.14644 47.3219 3.08676 48.8556 4.61556 50.3844C6.14437 51.9132 7.67798 52.8536 9.48635 53.5563C11.2357 54.2362 13.2346 54.701 16.1618 54.8346C19.095 54.9685 20.0313 55 27.4999 55C34.9686 55 35.905 54.9685 38.8381 54.8346C41.7653 54.701 43.7642 54.2362 45.5135 53.5563C47.3219 52.8536 48.8555 51.9132 50.3843 50.3844C51.9131 48.8556 52.8534 47.322 53.5562 45.5137C54.2361 43.7643 54.7009 41.7654 54.8345 38.8382C54.9683 35.9052 55 34.9687 55 27.5001C55 20.0314 54.9683 19.095 54.8345 16.1619C54.7009 13.2347 54.2361 11.2358 53.5562 9.48646C52.8534 7.67809 51.9131 6.14448 50.3843 4.61567C48.8555 3.08687 47.3219 2.14655 45.5135 1.44377C43.7642 0.763912 41.7653 0.299102 38.8381 0.165489C35.905 0.0316568 34.9686 0 27.4999 0ZM27.4999 13.3784C19.7008 13.3784 13.3783 19.7009 13.3783 27.5001C13.3783 35.2992 19.7008 41.6217 27.4999 41.6217C35.2991 41.6217 41.6216 35.2992 41.6216 27.5001C41.6216 19.7009 35.2991 13.3784 27.4999 13.3784ZM27.4999 36.6668C22.4374 36.6668 18.3332 32.5626 18.3332 27.5001C18.3332 22.4375 22.4374 18.3333 27.4999 18.3333C32.5625 18.3333 36.6667 22.4375 36.6667 27.5001C36.6667 32.5626 32.5625 36.6668 27.4999 36.6668ZM45.4795 12.8205C45.4795 14.643 44.0021 16.1205 42.1795 16.1205C40.357 16.1205 38.8795 14.643 38.8795 12.8205C38.8795 10.9979 40.357 9.52051 42.1795 9.52051C44.0021 9.52051 45.4795 10.9979 45.4795 12.8205Z" fill="#BE1668"/>
</svg>
