<svg width="100" height="70" viewBox="0 0 100 70" fill="none" xmlns="http://www.w3.org/2000/svg">
<path d="M0 48.1093C0 43.6004 1.23357 39.6444 3.70071 36.2415C6.16786 32.7534 9.57081 30.0311 13.9096 28.0744C18.3334 26.1177 23.3528 25.1393 28.9676 25.1393C34.4124 25.1393 38.9213 25.9901 42.4944 27.6915V25.6498C42.4944 22.502 41.5586 20.1625 39.687 18.6312C37.9004 17.0998 34.9654 16.3342 30.8818 16.3342C27.1386 16.3342 23.608 16.9722 20.2901 18.2483C17.0573 19.4394 13.6544 21.2259 10.0813 23.608L3.06266 8.54992C11.9103 2.84997 21.9916 0 33.3064 0C43.9407 0 52.1503 2.4246 57.9353 7.27381C63.8054 12.0379 66.7404 19.1416 66.7404 28.5848V41.6011C66.7404 43.8981 67.0807 45.5145 67.7613 46.4503C68.4419 47.3011 69.633 47.8115 71.3344 47.9817V68.3994C69.3777 68.8248 67.5061 69.1225 65.7196 69.2927C64.0181 69.5479 62.4868 69.6755 61.1256 69.6755C56.7868 69.6755 53.4689 68.9098 51.1719 67.3785C48.96 65.7621 47.5137 63.4226 46.8332 60.3599L46.3227 57.9353C40.1974 65.7621 32.5833 69.6755 23.4804 69.6755C19.0565 69.6755 15.0581 68.7397 11.485 66.868C7.91187 64.9964 5.10443 62.4442 3.06266 59.2114C1.02089 55.8935 0 52.1928 0 48.1093ZM39.3041 49.7682C41.431 48.3219 42.4944 46.7481 42.4944 45.0466V40.0698C41.1332 39.5593 39.5593 39.134 37.7728 38.7937C36.0713 38.4534 34.54 38.2832 33.1788 38.2832C30.2863 38.2832 27.8192 39.0064 25.7774 40.4526C23.8207 41.8989 22.8423 43.728 22.8423 45.9399C22.8423 47.8115 23.5655 49.3428 25.0117 50.5339C26.543 51.7249 28.4572 52.3204 30.7542 52.3204C33.9019 52.3204 36.7519 51.4697 39.3041 49.7682Z" fill="url(#paint0_linear)"/>
<path d="M80.3479 68.3994V44.919H100V68.3994H80.3479Z" fill="url(#paint1_linear)"/>
<defs>
<linearGradient id="paint0_linear" x1="51.972" y1="-51.5946" x2="51.972" y2="97.2847" gradientUnits="userSpaceOnUse">
<stop stop-color="#BE167F"/>
<stop offset="1" stop-color="#E55D85"/>
</linearGradient>
<linearGradient id="paint1_linear" x1="51.972" y1="-51.5946" x2="51.972" y2="97.2847" gradientUnits="userSpaceOnUse">
<stop stop-color="#BE167F"/>
<stop offset="1" stop-color="#E55D85"/>
</linearGradient>
</defs>
</svg>
